<svg xmlns="http://www.w3.org/2000/svg" width="50" height="50" viewBox="0 0 50 50">
  <g id="Group_95" data-name="Group 95" transform="translate(-3855 -22353)">
    <g id="Ellipse_5" data-name="Ellipse 5" transform="translate(3855 22353)" fill="#fff" stroke="#fff" stroke-width="1">
      <circle cx="25" cy="25" r="25" stroke="none"/>
      <circle cx="25" cy="25" r="24.5" fill="none"/>
    </g>
    <path id="Path_12" data-name="Path 12" d="M22,0A22,22,0,1,1,0,22,22,22,0,0,1,22,0Z" transform="translate(3858 22356)" fill="#c6c5c2"/>
    <path id="Icon_ionic-md-arrow-back" data-name="Icon ionic-md-arrow-back" d="M15.977,10.352H8.383l3.5-3.5-.906-.875-5,5,5,5,.875-.875L8.383,11.6h7.594Z" transform="translate(3890.977 22388.938) rotate(180)" fill="#231f20"/>
  </g>
</svg>
